<svg xmlns="http://www.w3.org/2000/svg" width="16" height="9" viewBox="0 0 16 9">
    <path fill="#2B57B7" stroke="#2B57B7" d="M1.038 1.991L8 9.063 14.962 1.991 14.092 1.108 8 7.295 1.908 1.108z" transform="translate(0 -1)"/>
</svg>
