<svg xmlns="http://www.w3.org/2000/svg" width="17" height="18" viewBox="0 0 17 18">
    <path fill="#FFF" d="M9 14.164V1.914l5.25 5.25L15 6.5 8.5 0 2 6.5l.75.664L8 1.914v12.25h1zM0 15h1v2h15v-2h1v3H0v-3z"/>
</svg>
