<svg xmlns="http://www.w3.org/2000/svg" xmlns:xlink="http://www.w3.org/1999/xlink" width="21" height="20" viewBox="0 0 21 20">
    <defs>
        <path id="a" d="M0 0h24v24H0z"/>
    </defs>
    <g fill="none" fill-rule="evenodd" transform="translate(-2 -2)">
        <mask id="b" fill="#fff">
            <use xlink:href="#a"/>
        </mask>
        <path fill="#95A5A6" fill-rule="nonzero" d="M21.883 20.945c.312.287.319.573.02.86-.3.286-.593.286-.88 0L14.93 15.71c-1.459 1.276-3.164 1.914-5.117 1.914-2.162 0-4.004-.762-5.528-2.285C2.762 13.816 2 11.974 2 9.813c0-2.162.762-4.004 2.285-5.528C5.81 2.762 7.651 2 9.812 2c2.162 0 4.004.762 5.528 2.285 1.523 1.524 2.285 3.366 2.285 5.527 0 1.876-.599 3.542-1.797 5l6.055 6.133zm-7.422-6.484c1.302-1.276 1.953-2.826 1.953-4.649 0-1.822-.644-3.372-1.934-4.648-1.289-1.276-2.838-1.914-4.648-1.914-1.81 0-3.36.638-4.648 1.914C3.894 6.44 3.25 7.99 3.25 9.813c0 1.822.645 3.372 1.934 4.648 1.289 1.276 2.838 1.914 4.648 1.914 1.81 0 3.353-.638 4.629-1.914z" mask="url(#b)"/>
    </g>
</svg>
