<svg xmlns="http://www.w3.org/2000/svg" xmlns:xlink="http://www.w3.org/1999/xlink" width="18" height="20" viewBox="0 0 18 20">
    <defs>
        <path id="a" d="M0 0h24v24H0z"/>
    </defs>
    <g fill="none" fill-rule="evenodd" transform="translate(-3 -2)">
        <mask id="b" fill="#fff">
            <use xlink:href="#a"/>
        </mask>
        <path fill="#95A5A6" fill-rule="nonzero" d="M15.503 5.203c1.85.86 3.23 2.2 4.14 4.024.912 1.822 1.16 3.724.743 5.703-.443 2.083-1.478 3.776-3.105 5.078-1.628 1.302-3.47 1.953-5.528 1.953a9.807 9.807 0 0 1-1.758-.156c-2.317-.47-4.153-1.732-5.507-3.79-1.354-2.03-1.784-4.231-1.29-6.6a8.803 8.803 0 0 1 1.7-3.692 8.646 8.646 0 0 1 3.183-2.52.54.54 0 0 1 .47-.02.672.672 0 0 1 .35.333.54.54 0 0 1 .02.468.672.672 0 0 1-.332.352 7.67 7.67 0 0 0-2.695 2.168 7.324 7.324 0 0 0-1.445 3.144c-.443 2.058-.079 3.959 1.093 5.704 1.146 1.744 2.709 2.812 4.688 3.203 2.031.442 3.92.084 5.664-1.075 1.745-1.158 2.825-2.753 3.242-4.785.365-1.718.156-3.353-.625-4.902-.781-1.55-1.966-2.702-3.555-3.457a.593.593 0 0 1-.312-.352.649.649 0 0 1 .02-.468.591.591 0 0 1 .351-.332.581.581 0 0 1 .488.02zm-4.18 4.766a.727.727 0 0 1-.156-.469V2.625c0-.182.059-.332.176-.45a.608.608 0 0 1 .45-.175c.182 0 .331.059.449.176a.608.608 0 0 1 .175.449V9.5a.608.608 0 0 1-.175.45.608.608 0 0 1-.45.175.727.727 0 0 1-.468-.156z" mask="url(#b)"/>
    </g>
</svg>
