<svg xmlns="http://www.w3.org/2000/svg" xmlns:xlink="http://www.w3.org/1999/xlink" width="21" height="21" viewBox="0 0 21 21">
    <defs>
        <path id="a" d="M0 0h24v24H0z"/>
        <path id="b" d="M20.633 3.29c.364-.105.69-.047.976.175.287.221.43.514.43.879v15.195c0 .313-.104.606-.312.879-.209.273-.47.45-.782.527l-8.242 2.227a3.09 3.09 0 0 1-.742.078c-.313 0-.573-.026-.781-.078l-8.086-2.227c-.287-.078-.534-.254-.742-.527a1.424 1.424 0 0 1-.313-.879V4.344c0-.365.143-.658.43-.88.286-.22.612-.28.976-.175l8.047 2.227c.104.026.254.039.45.039.195 0 .344-.013.449-.04l8.242-2.226zm-9.219 18.632V6.766a.544.544 0 0 1-.234-.04L3.29 4.54v15c0 .104.051.17.155.195l7.97 2.188zm9.375-2.383v-15l-8.086 2.188h-.039v15.156l7.969-2.149c.104-.026.156-.09.156-.195zm-6.21-9.14c-.313 0-.509-.157-.587-.47a.542.542 0 0 1 .04-.449.611.611 0 0 1 .39-.293l4.375-1.25a.55.55 0 0 1 .469.06.591.591 0 0 1 .293.39.611.611 0 0 1-.45.762l-4.375 1.25h-.156zm0 3.75c-.313 0-.509-.157-.587-.47a.542.542 0 0 1 .04-.449.611.611 0 0 1 .39-.293l4.375-1.25a.55.55 0 0 1 .469.06.591.591 0 0 1 .293.39.611.611 0 0 1-.45.762l-4.375 1.25h-.156zm0 3.75c-.313 0-.509-.157-.587-.47a.542.542 0 0 1 .04-.449.611.611 0 0 1 .39-.293l4.375-1.25a.55.55 0 0 1 .469.06.591.591 0 0 1 .293.39.611.611 0 0 1-.45.762l-4.375 1.25h-.156zM9.733 9.186c.183.053.313.15.391.293a.542.542 0 0 1 .04.45c-.08.312-.274.468-.587.468h-.156l-4.375-1.25a.611.611 0 0 1-.45-.761c.04-.17.137-.3.294-.39a.55.55 0 0 1 .468-.06l4.375 1.25zm0 3.75c.183.053.313.15.391.293a.542.542 0 0 1 .04.45c-.08.312-.274.468-.587.468h-.156l-4.375-1.25a.611.611 0 0 1-.45-.761c.04-.17.137-.3.294-.39a.55.55 0 0 1 .468-.06l4.375 1.25zm0 3.75c.183.053.313.15.391.293a.542.542 0 0 1 .04.45c-.08.312-.274.468-.587.468h-.156l-4.375-1.25a.611.611 0 0 1-.45-.761c.04-.17.137-.3.294-.39a.55.55 0 0 1 .468-.06l4.375 1.25z"/>
    </defs>
    <g fill="none" fill-rule="evenodd" transform="translate(-2 -3)">
        <use fill="#95A5A6" fill-rule="nonzero" xlink:href="#b"/>
    </g>
</svg>
